
([0.7114843821893747,0.8798603693403181,8.844826965269342e-2,2.5469459857287047e-2,0.7655999681969499],[2.9937045781303073e-4,9.942211125691836e-2,9.508301762506166e-3,3.13920727410163e-2,0.9595152767448549],630.6)
0.00 0.09 0.01 0.03 0.87 
0.00 0.99 0.00 0.00 0.00 
0.01 0.99 0.00 0.00 0.00 
0.01 0.99 0.00 0.00 0.00 
0.02 0.98 0.00 0.00 0.00 
0.04 0.96 0.00 0.00 0.00 
0.06 0.94 0.00 0.00 0.00 
0.10 0.90 0.00 0.00 0.00 
0.15 0.85 0.00 0.00 0.00 
0.23 0.77 0.00 0.00 0.00 
MStats {total = 10000, hits = 10000, miss = 0, avgDepth = 33.7565, avgSize = 101.9248}
........................................ 58
........................................ 56
........................................ 54
..............................1......... 52
........................................ 50
.........1...........112121211.......... 48
.................1.11414a771a42...1..111 46
.........3....2.1.637cfffffa2822.2122121 44
........d....1..22e9fffffffffc8132242424 42
........f.1.13489fffffffffffffd44a87c299 40
.......ff.1.6437ffffffffffffff48699efef7 38
.......f1121.7cfffffffffffff899cc8effef9 36
.......f.2.16efffffffffffff8f876ffa97697 34
......f.1262ffffffffffffff6734c367f2763. 32
......f212aacfffffffffffe2124242362622.1 30
.....ff14237effffffffff4423221233.1..... 28
.....f.1173caffffffff32121..11.......... 26
.....f..424aafffffa11..1..1............. 24
....f.22662fcffdd3...11................. 22
....f.133246c7732..1.................... 20
...ff.113167121......................... 18
...f.1...1112........................... 16
...f.1..1............................... 14
..f..................................... 12
..f..................................... 10
.46..................................... 8
.7...................................... 6
.f...................................... 4
8....................................... 2
8....................................... 0
